{
  "toolbar": [
    {
      "name": "clipboard",
      "items": [
        "Cut",
        "Copy",
        "Paste",
        "PasteText",
        "PasteFromWord",
        "-",
        "Undo",
        "Redo"
      ]
    },
    {
      "name": "links",
      "items": [
        "kLink",
        "Unlink",
        "kAnchor"
      ]
    },
    {
      "name": "insert",
      "items": [
        "SpecialChar"
      ]
    },
    {
      "name": "media",
      "items": [
        "kImage",
        "kVideo",
        "kAudio"
      ]
    },
    {
      "name": "document",
      "items": [
        "ShowBlocks"
      ]
    },
    {
      "name": "tools",
      "items": [
        "Maximize"
      ]
    },
    "/",
    {
      "name": "basicstyles",
      "items": [
        "Bold",
        "Italic",
        "Underline",
        "Strike",
        "Subscript",
        "Superscript",
        "-",
        "RemoveFormat"
      ]
    },
    {
      "name": "lists",
      "items": [
        "NumberedList",
        "BulletedList"
      ]
    },
    {
      "name": "paragraph",
      "items": [
        "Outdent",
        "Indent",
        "-",
        "JustifyLeft",
        "JustifyCenter",
        "JustifyRight"
      ]
    },
    {
      "name": "styles",
      "items": [
        "Format",
        "-",
        "Blockquote"
      ]
    }
  ],
  "qtBorder": 0,
  "qtCellPadding": 0,
  "qtCellSpacing": 0,
  "qtWidth": "100%",
  "entities_processNumerical" : "force",
  "format_cite": {"element": "cite"},
  "format_q": {"element": "q"},
  "readOnly": false,
  "fillEmptyBlocks": false,
  "autoParagraph": false,
  "disableNativeSpellChecker": false,
  "removeButtons": "Underline",
  "removePlugins": "image,anchor",
  "format_tags": "p;h2;h3;h4;h5;h6;address;cite;q",
  "skin": "kosmos",
  "defaultLanguage": "fr",
  "extraLanguageDirectories": ["/adminsite/ckeditor/custom/lang/"],
  "extraPlugins": "autolink,justify,notifications,showblocks,klink,kimage,kvideo,kaudio,languagemerge,tabletools",
  "externalPaths": {
    "kiframedialog": "/adminsite/ckeditor/kplugins/kiframedialog/",
    "klink": "/adminsite/ckeditor/kplugins/klink/",
    "kmedia": "/adminsite/ckeditor/kplugins/kmedia/",
    "kimage": "/adminsite/ckeditor/kplugins/kimage/",
    "kvideo": "/adminsite/ckeditor/kplugins/kvideo/",
    "kaudio": "/adminsite/ckeditor/kplugins/kaudio/",
    "cookies": "/adminsite/ckeditor/kplugins/cookies/",
    "notifications": "/adminsite/ckeditor/kplugins/notifications/",
    "languagemerge": "/adminsite/ckeditor/kplugins/languagemerge/"
  }
}