Rubriques                                                              rub
Diffusion rubriques                                                    pub
Médiathèque                                                            pho
Accès médiathèque                                                      acp
Encadrés génériques                                                    enc
Accès au module d'administration                                       mda
Edition du code HTML                                                   mdh
Insertion de listes de fiches                                          flf
Assistant de tags                                                      fat
Edition du code HTML                                                   feh
Insertion de flux RSS/ATOM                                             fra
Insertion de galeries                                                  fgm
Diffusion à des groupes                                                dsi
Gestionnaire                                                           ges
Webmaster global                                                       wmg
Insertions de plans de site                                            fps
